<svg width="72" height="72" viewBox="0 0 72 72" fill="none" xmlns="http://www.w3.org/2000/svg">
<path d="M64.5283 62.3338C64.3231 62.9602 63.8335 63.655 63.0307 63.889C62.4511 64.0582 43.2739 69.613 42.6835 69.7678C40.9951 70.2178 39.8215 69.8866 39.0511 69.2062C37.8775 68.173 24.3163 58.9462 7.20913 58.075C5.38033 57.985 6.27673 51.0514 11.5039 51.0514C15.0859 51.0514 25.5583 53.6542 26.8219 52.387C27.7975 51.4078 28.2403 45.6226 24.1687 35.5282L15.9787 15.235C15.649 14.3193 15.6869 13.3115 16.0846 12.4232C16.4823 11.5349 17.2088 10.8353 18.1114 10.4713C19.0141 10.1074 20.0226 10.1074 20.9253 10.4714C21.8279 10.8354 22.5543 11.5351 22.9519 12.4234L30.1015 30.1318C30.7963 31.8598 31.6531 32.515 32.5855 32.155C33.4171 31.8382 33.5899 31.2838 33.0859 29.6026L25.7203 7.90184C25.5612 7.43476 25.4957 6.94091 25.5276 6.44851C25.5594 5.9561 25.688 5.47481 25.906 5.03214C26.124 4.58947 26.4271 4.19411 26.798 3.86866C27.1689 3.54321 27.6003 3.29405 28.0675 3.13544C28.5348 2.97527 29.0291 2.90896 29.522 2.94032C30.015 2.97168 30.4969 3.10009 30.9401 3.31817C31.3833 3.53626 31.7791 3.83973 32.1047 4.21117C32.4303 4.58261 32.6793 5.0147 32.8375 5.48264L39.8431 26.1178C40.4623 27.9322 41.1175 28.8826 42.1543 28.4434C42.7771 28.1806 42.7339 27.2266 42.5683 26.395L37.6507 6.69944C37.5155 6.21517 37.4788 5.70872 37.5426 5.21001C37.6065 4.7113 37.7696 4.23045 38.0225 3.79587C38.2753 3.3613 38.6127 2.98181 39.0147 2.67985C39.4167 2.37788 39.8752 2.15956 40.363 2.03779C40.8508 1.91602 41.3581 1.89326 41.8548 1.97087C42.3516 2.04848 42.8278 2.22487 43.2552 2.48963C43.6826 2.75439 44.0526 3.10215 44.3434 3.51234C44.6341 3.92253 44.8397 4.38684 44.9479 4.87784L49.4839 23.029C50.1463 25.6966 50.7547 26.6578 51.8095 26.395C52.8859 26.1322 52.8355 25.2466 52.6879 24.5158L49.5487 8.93504C49.4205 8.06824 49.6298 7.18528 50.1336 6.46833C50.6373 5.75138 51.397 5.25512 52.256 5.08195C53.1149 4.90877 54.0076 5.07189 54.7498 5.53764C55.492 6.0034 56.0271 6.73626 56.2447 7.58504L59.6575 24.5446L59.6611 24.5482V24.5518L61.7059 34.7218C62.1523 36.6406 62.6635 38.4478 63.3259 40.219C67.2319 50.6194 65.1943 60.2494 64.5283 62.3338Z" fill="#94C12C"/>
</svg>
