<svg width="58" height="48" viewBox="0 0 58 48" fill="none" xmlns="http://www.w3.org/2000/svg">
<path d="M18.4545 21.0909C20.5402 21.0909 22.579 20.4724 24.3132 19.3136C26.0474 18.1549 27.399 16.5079 28.1972 14.581C28.9953 12.6541 29.2042 10.5337 28.7973 8.48812C28.3904 6.44251 27.386 4.56349 25.9112 3.08869C24.4364 1.61388 22.5574 0.609529 20.5118 0.202632C18.4662 -0.204265 16.3459 0.00456913 14.4189 0.802727C12.492 1.60089 10.845 2.95252 9.68629 4.6867C8.52755 6.42089 7.90907 8.45974 7.90907 10.5454C7.90907 13.3422 9.0201 16.0245 10.9977 18.0022C12.9754 19.9798 15.6577 21.0909 18.4545 21.0909ZM34.2726 47.4544C34.9718 47.4544 35.6424 47.1767 36.1368 46.6822C36.6312 46.1878 36.909 45.5173 36.909 44.8181C36.909 39.9236 34.9647 35.2296 31.5038 31.7688C28.0429 28.3079 23.3489 26.3636 18.4545 26.3636C13.5601 26.3636 8.86608 28.3079 5.40519 31.7688C1.94431 35.2296 7.29328e-08 39.9236 0 44.8181C0 45.5173 0.277759 46.1878 0.772171 46.6822C1.26658 47.1767 1.93715 47.4544 2.63636 47.4544H34.2726Z" fill="white"/>
<path d="M56.6818 14.4999H50.091V15.8181C50.4406 15.8181 50.7758 15.9569 51.023 16.2041C51.2703 16.4514 51.4091 16.7866 51.4091 17.1362C51.4091 17.4858 51.2703 17.8211 51.023 18.0683C50.7758 18.3155 50.4406 18.4544 50.091 18.4544H44.8182C44.4686 18.4544 44.1334 18.3155 43.8862 18.0683C43.6389 17.8211 43.5001 17.4858 43.5001 17.1362C43.5001 16.7866 43.6389 16.4514 43.8862 16.2041C44.1334 15.9569 44.4686 15.8181 44.8182 15.8181V14.4999H38.2274C37.8778 14.4999 37.5425 14.6388 37.2953 14.886C37.0481 15.1332 36.9092 15.4685 36.9092 15.8181V30.318C36.9092 30.6676 37.0481 31.0029 37.2953 31.2501C37.5425 31.4973 37.8778 31.6362 38.2274 31.6362H56.6818C57.0314 31.6362 57.3667 31.4973 57.6139 31.2501C57.8611 31.0029 58 30.6676 58 30.318V15.8181C58 15.4685 57.8611 15.1332 57.6139 14.886C57.3667 14.6388 57.0314 14.4999 56.6818 14.4999ZM46.7955 21.0908H54.814C54.9888 21.0908 55.1564 21.1602 55.28 21.2838C55.4036 21.4074 55.4731 21.5751 55.4731 21.7499C55.4731 21.9247 55.4036 22.0923 55.28 22.2159C55.1564 22.3395 54.9888 22.4089 54.814 22.4089H46.7955C46.6207 22.4089 46.4531 22.3395 46.3295 22.2159C46.2059 22.0923 46.1364 21.9247 46.1364 21.7499C46.1364 21.5751 46.2059 21.4074 46.3295 21.2838C46.4531 21.1602 46.6207 21.0908 46.7955 21.0908ZM46.7955 23.7271H54.814C54.9888 23.7271 55.1564 23.7966 55.28 23.9202C55.4036 24.0438 55.4731 24.2114 55.4731 24.3862C55.4731 24.561 55.4036 24.7287 55.28 24.8523C55.1564 24.9759 54.9888 25.0453 54.814 25.0453H46.7955C46.6207 25.0453 46.4531 24.9759 46.3295 24.8523C46.2059 24.7287 46.1364 24.561 46.1364 24.3862C46.1364 24.2114 46.2059 24.0438 46.3295 23.9202C46.4531 23.7966 46.6207 23.7271 46.7955 23.7271ZM46.7955 26.3635H54.814C54.9888 26.3635 55.1564 26.4329 55.28 26.5565C55.4036 26.6801 55.4731 26.8478 55.4731 27.0226C55.4731 27.1974 55.4036 27.365 55.28 27.4886C55.1564 27.6122 54.9888 27.6817 54.814 27.6817H46.7955C46.6207 27.6817 46.4531 27.6122 46.3295 27.4886C46.2059 27.365 46.1364 27.1974 46.1364 27.0226C46.1364 26.8478 46.2059 26.6801 46.3295 26.5565C46.4531 26.4329 46.6207 26.3635 46.7955 26.3635ZM44.8182 27.0872C44.8182 29.017 39.6075 29.017 39.6075 27.0872C39.6075 25.1573 40.7741 23.594 42.2122 23.594C43.6517 23.594 44.8182 25.1573 44.8182 27.0872ZM43.7716 21.365C43.7716 21.7874 43.6038 22.1925 43.3051 22.4912C43.0064 22.7898 42.6013 22.9576 42.1789 22.9576C41.7565 22.9576 41.3514 22.7898 41.0527 22.4912C40.754 22.1925 40.5862 21.7874 40.5862 21.365C40.5862 20.9425 40.754 20.5374 41.0527 20.2387C41.3514 19.9401 41.7565 19.7723 42.1789 19.7723C42.6013 19.7723 43.0064 19.9401 43.3051 20.2387C43.6038 20.5374 43.7716 20.9425 43.7716 21.365ZM46.1364 11.8635H48.7728V17.1362H46.1364V11.8635Z" fill="white"/>
</svg>
